<svg xmlns="http://www.w3.org/2000/svg" xmlns:xlink="http://www.w3.org/1999/xlink" preserveAspectRatio="xMidYMid" width="116" height="116" viewBox="0 0 116 116">
  <defs>
    <style>
      .cls-1 {
        fill: #fff;
      }

      .cls-1, .cls-2 {
        fill-rule: evenodd;
      }

      .cls-2 {
        fill: #6c6c6c;
      }
    </style>
  </defs>
  <g>
    <path d="M69.112,4.590 L111.384,46.863 C117.528,53.006 117.528,62.967 111.384,69.111 L69.112,111.383 C62.968,117.527 53.007,117.527 46.863,111.383 L4.591,69.111 C-1.553,62.967 -1.553,53.006 4.591,46.863 L46.863,4.590 C53.007,-1.554 62.968,-1.554 69.112,4.590 Z" class="cls-1"/>
    <g>
      <path d="M14.112,58.178 L24.202,47.926 C24.428,47.697 24.794,47.697 25.020,47.926 C25.246,48.155 25.246,48.528 25.020,48.757 L14.930,59.009 C14.704,59.239 14.338,59.239 14.112,59.009 C13.886,58.780 13.886,58.408 14.112,58.178 Z" class="cls-2"/>
      <path d="M14.930,58.506 L25.020,68.758 C25.246,68.988 25.246,69.360 25.020,69.589 C24.794,69.819 24.428,69.819 24.202,69.589 L14.112,59.337 C13.886,59.108 13.886,58.736 14.112,58.506 C14.338,58.277 14.704,58.277 14.930,58.506 Z" class="cls-2"/>
    </g>
    <g>
      <path d="M102.630,59.349 L92.540,69.601 C92.314,69.831 91.948,69.831 91.722,69.601 C91.496,69.372 91.496,69.000 91.722,68.771 L101.812,58.518 C102.038,58.289 102.404,58.289 102.630,58.518 C102.856,58.748 102.856,59.120 102.630,59.349 Z" class="cls-2"/>
      <path d="M101.812,59.021 L91.722,48.769 C91.496,48.540 91.496,48.168 91.722,47.938 C91.948,47.708 92.314,47.708 92.540,47.938 L102.630,58.190 C102.856,58.420 102.856,58.792 102.630,59.021 C102.404,59.251 102.038,59.251 101.812,59.021 Z" class="cls-2"/>
    </g>
  </g>
</svg>
